{
  "globalDependencies": {
    "hammerjs": "registry:dt/hammerjs#2.0.8+20160724063812",
    "core-js": "registry:dt/core-js#0.0.0+20160317120654",
    "jasmine": "registry:dt/jasmine#2.2.0+20160505161446",
    "node": "github:DefinitelyTyped/DefinitelyTyped/node/node.d.ts#8cf8164641be73e8f1e652c2a5b967c7210b6729",
    "webpack": "github:DefinitelyTyped/DefinitelyTyped/webpack/webpack.d.ts#95c02169ba8fa58ac1092422efbd2e3174a206f4"
  }
}